Memoria de Cálculo MBHT - 6 Consolidación de Dimensiones
…
Por otro lado, iterador_soc resume la población relevante de cada indicador:

iterador_soc

# A tibble: 27 × 2
   abrev_ind pob_rev 
   <chr>     <chr>   
 1 icul      personas
 2 iav       personas
 3 isal      personas
 4 idep      personas
 5 iser      personas
 6 ise       e4a18   
 7 ICV       AREA    
 8 IATA      AREA    
 9 IEJ       personas
10 IRH       personas
# ℹ 17 more rows
…
